
;; Function main (main, funcdef_no=0, decl_uid=2176, cgraph_uid=0)

main ()
{
  int d;
  int c;
  int b;
  int a;
  int D.2184;
  int D.2183;

  <bb 2>:
  a = -10;
  a = b + -10;
  a = 10 - b;
  a = b - c;
  a = b - c;
  D.2183 = -c;
  b = D.2183 * d;
  c = -d;
  D.2184 = -d;
  d = D.2184 / c;
  if (a != 0)
    goto <bb 3>;
  else
    goto <bb 4>;

  <bb 3>:
  a = a + b;
  goto <bb 5>;

  <bb 4>:
  c = c - d;

  <bb 5>:
  return;

}


